#,Height,Leaf area,Foliated,Defoliated,Flex. rigid.,Flex. rigid.,Foliated,Defoliated
# Specimen,H (m),A_L (m2),Ap0 (m2),Ap0 (m2),EI_25 (Nm2),EI_50 (Nm2),V (cm3),V (cm3)
A1,2.45,0.797,0.5378,0.187,71,102,1616,1394
A2,3.6,0.998,0.7233,NULL,430,249,3156,2866
A3,2.6,NULL,0.3986,NULL,64,135,NULL,NULL
A4,2.4,0.735,0.4137,NULL,106,82,1394,1194
A5,1.8,0.576,0.3457,NULL,31,16,1461,1331

P1,2.68,NULL,NULL,0.1569,135,42,NULL,1218
P2,3.77,1.086,0.7006,NULL,122,184,NULL,NULL
P2B1,3.77,NULL,NULL,NULL,122,184,NULL,NULL
P2B2,2.5,NULL,NULL,NULL,37,43,507,417
P3,2.6,0.408,0.3252,NULL,59,47,1045,945
P4,3.9,1.201,0.6841,NULL,664,541,NULL,2344
P4B1,2.3,NULL,NULL,NULL,136,111,2064,1964
P4B2,1.8,NULL,NULL,NULL,NULL,NULL,NULL,380

S1,2.1,NULL,0.522,0.461,NULL,NULL,2370,2271
S2,2.4,NULL,NULL,0.2213,119,141,1681,1561
S3,3.95,NULL,0.9775,NULL,367,559,5740,5250
S4,2,0.692,0.3171,NULL,31,42,NULL,NULL
S5,3.6,NULL,1.1529,NULL,NULL,NULL,3771,3051
S5B1,3.6,NULL,NULL,NULL,65,56,1944,1594
S5B2,3.6,NULL,NULL,NULL,157,51,1827,1457
S6,3.2,NULL,0.7335,NULL,NULL,NULL,2628,1788
S6B1,3.2,NULL,NULL,NULL,20,18,1529,1039
S6B2,2.8,NULL,NULL,NULL,47,20,1099,749
S7,2.3,1.29,0.5203,NULL,NULL,NULL,2674,2359
S7B1,2.3,NULL,NULL,NULL,85,72,719,604
S7B2,2.3,NULL,NULL,NULL,84,48,1037,907
S7B3,2.18,NULL,NULL,NULL,NULL,NULL,918,848
S8,3,NULL,0.363,NULL,35,40,NULL,765
S9,3.6,NULL,0.6013,NULL,NULL,NULL,2050,1540
S10,3.24,NULL,0.6544,NULL,258,349,2858,2388
S11,3.5,NULL,0.3434,NULL,64,52,1209,1039
S12,4.1,NULL,0.3268,NULL,141,174,1466,1346
